NoC-Design/graph.vcd
$date
     Mar 24, 2026       13:15:04
$end

$version
              SystemC 2.3.0-ASI --- Sep 10 2012 16:44:06
$end

$timescale
     1 ps
$end

$scope module SystemC $end
$var wire    1  aaa  s_clock       $end
$var wire    1  aab  d_clock       $end
$var wire   11  aac  si_source(0).data [10:0]  $end
$var wire    4  aad  si_source(0).id [3:0]  $end
$var wire    4  aae  si_source(0).dest [3:0]  $end
$var wire    1  aaf  si_source(0).pkt_clk       $end
$var wire    1  aag  si_source(0).h_t       $end
$var wire   11  aah  si_source(1).data [10:0]  $end
$var wire    4  aai  si_source(1).id [3:0]  $end
$var wire    4  aaj  si_source(1).dest [3:0]  $end
$var wire    1  aak  si_source(1).pkt_clk       $end
$var wire    1  aal  si_source(1).h_t       $end
$var wire   11  aam  si_sink(0).data [10:0]  $end
$var wire    4  aan  si_sink(0).id [3:0]  $end
$var wire    4  aao  si_sink(0).dest [3:0]  $end
$var wire    1  aap  si_sink(0).pkt_clk       $end
$var wire    1  aaq  si_sink(0).h_t       $end
$var wire   11  aar  si_sink(1).data [10:0]  $end
$var wire    4  aas  si_sink(1).id [3:0]  $end
$var wire    4  aat  si_sink(1).dest [3:0]  $end
$var wire    1  aau  si_sink(1).pkt_clk       $end
$var wire    1  aav  si_sink(1).h_t       $end
$upscope $end
$enddefinitions  $end

$comment
All initial values are dumped below at time 0 sec = 0 timescale units.
$end

$dumpvars
1aaa
0aab
b0 aac
b0 aad
b0 aae
0aaf
0aag
b0 aah
b0 aai
b0 aaj
0aak
0aal
b0 aam
b0 aan
b0 aao
0aap
0aaq
b0 aar
b0 aas
b0 aat
0aau
0aav
$end

#10000
1aab

#12500
0aab

#15000
1aab

#17500
0aab

#20000
1aab

#22500
0aab

#25000
1aab

#27500
0aab

#30000
1aab

#32500
0aab

#35000
1aab

#37500
0aab

#40000
1aab

#42500
0aab

#45000
1aab

#47500
0aab

#50000
1aab

#52500
0aab

#55000
1aab

#57500
0aab

#60000
1aab

#62500
0aaa
0aab

#65000
1aab

#67500
0aab

#70000
1aab

#72500
0aab

#75000
1aab

#77500
0aab

#80000
1aab

#82500
0aab

#85000
1aab

#87500
0aab

#90000
1aab

#92500
0aab

#95000
1aab

#97500
0aab

#100000
1aab

#102500
0aab

#105000
1aab

#107500
0aab

#110000
1aab

#112500
0aab

#115000
1aab

#117500
0aab

#120000
1aab

#122500
0aab

#125000
1aaa
1aab
b1111101001 aac
b1 aae
1aaf

#127500
0aab

#130000
1aab

#132500
0aab

#135000
1aab
b1111101001 aar
b1 aat
1aau

#137500
0aab

#140000
1aab

#142500
0aab

#145000
1aab

#147500
0aab

#150000
1aab

#152500
0aab

#155000
1aab

#157500
0aab

#160000
1aab

#162500
0aab

#165000
1aab

#167500
0aab

#170000
1aab

#172500
0aab

#175000
1aab

#177500
0aab

#180000
1aab

#182500
0aab

#185000
1aab

#187500
0aaa
0aab

#190000
1aab

#192500
0aab

#195000
1aab

#197500
0aab

#200000
1aab

#202500
0aab

#205000
1aab

#207500
0aab

#210000
1aab

#212500
0aab

#215000
1aab

#217500
0aab

#220000
1aab

#222500
0aab

#225000
1aab

#227500
0aab

#230000
1aab

#232500
0aab

#235000
1aab

#237500
0aab

#240000
1aab

#242500
0aab

#245000
1aab

#247500
0aab

#250000
1aaa
1aab
b1111101010 aac
0aaf

#252500
0aab

#255000
1aab

#257500
0aab

#260000
1aab
b1111101010 aar
0aau

#262500
0aab

#265000
1aab

#267500
0aab

#270000
1aab

#272500
0aab

#275000
1aab

#277500
0aab

#280000
1aab

#282500
0aab

#285000
1aab

#287500
0aab

#290000
1aab

#292500
0aab

#295000
1aab

#297500
0aab

#300000
1aab

#302500
0aab

#305000
1aab

#307500
0aab

#310000
1aab

#312500
0aaa
0aab

#315000
1aab

#317500
0aab

#320000
1aab

#322500
0aab

#325000
1aab

#327500
0aab

#330000
1aab

#332500
0aab

#335000
1aab

#337500
0aab

#340000
1aab

#342500
0aab

#345000
1aab

#347500
0aab

#350000
1aab

#352500
0aab

#355000
1aab

#357500
0aab

#360000
1aab

#362500
0aab

#365000
1aab

#367500
0aab

#370000
1aab

#372500
0aab

#375000
1aaa
1aab
b1111101011 aac
1aaf

#377500
0aab

#380000
1aab

#382500
0aab

#385000
1aab
b1111101011 aar
1aau

#387500
0aab

#390000
1aab

#392500
0aab

#395000
1aab

#397500
0aab

#400000
1aab

#402500
0aab

#405000
1aab

#407500
0aab

#410000
1aab

#412500
0aab

#415000
1aab

#417500
0aab

#420000
1aab

#422500
0aab

#425000
1aab

#427500
0aab

#430000
1aab

#432500
0aab

#435000
1aab

#437500
0aaa
0aab

#440000
1aab

#442500
0aab

#445000
1aab

#447500
0aab

#450000
1aab

#452500
0aab

#455000
1aab

#457500
0aab

#460000
1aab

#462500
0aab

#465000
1aab

#467500
0aab

#470000
1aab

#472500
0aab

#475000
1aab

#477500
0aab

#480000
1aab

#482500
0aab

#485000
1aab

#487500
0aab

#490000
1aab

#492500
0aab

#495000
1aab

#497500
0aab

#500000
1aaa
1aab
b1111101100 aac
0aaf

#502500
0aab

#505000
1aab

#507500
0aab

#510000
1aab
b1111101100 aar
0aau

