NoC-Design/graph_4x4.vcd
$date
     Apr 07, 2026       17:22:45
$end

$version
              SystemC 2.3.0-ASI --- Sep 10 2012 16:44:06
$end

$timescale
     1 ps
$end

$scope module SystemC $end
$var wire    1  aaa  s_clock       $end
$var wire    1  aab  r_clock       $end
$var wire    1  aac  d_clock       $end
$var wire   11  aad  si_source_0.data [10:0]  $end
$var wire    4  aae  si_source_0.id [3:0]  $end
$var wire    4  aaf  si_source_0.dest [3:0]  $end
$var wire    1  aag  si_source_0.pkt_clk       $end
$var wire    1  aah  si_source_0.h_t       $end
$var wire   11  aai  si_sink_0.data [10:0]  $end
$var wire    4  aaj  si_sink_0.id [3:0]  $end
$var wire    4  aak  si_sink_0.dest [3:0]  $end
$var wire    1  aal  si_sink_0.pkt_clk       $end
$var wire    1  aam  si_sink_0.h_t       $end
$var wire    4  aan  dest_0 [3:0]  $end
$var wire   11  aao  si_source_1.data [10:0]  $end
$var wire    4  aap  si_source_1.id [3:0]  $end
$var wire    4  aaq  si_source_1.dest [3:0]  $end
$var wire    1  aar  si_source_1.pkt_clk       $end
$var wire    1  aas  si_source_1.h_t       $end
$var wire   11  aat  si_sink_1.data [10:0]  $end
$var wire    4  aau  si_sink_1.id [3:0]  $end
$var wire    4  aav  si_sink_1.dest [3:0]  $end
$var wire    1  aaw  si_sink_1.pkt_clk       $end
$var wire    1  aax  si_sink_1.h_t       $end
$var wire    4  aay  dest_1 [3:0]  $end
$var wire   11  aaz  si_source_2.data [10:0]  $end
$var wire    4  aba  si_source_2.id [3:0]  $end
$var wire    4  abb  si_source_2.dest [3:0]  $end
$var wire    1  abc  si_source_2.pkt_clk       $end
$var wire    1  abd  si_source_2.h_t       $end
$var wire   11  abe  si_sink_2.data [10:0]  $end
$var wire    4  abf  si_sink_2.id [3:0]  $end
$var wire    4  abg  si_sink_2.dest [3:0]  $end
$var wire    1  abh  si_sink_2.pkt_clk       $end
$var wire    1  abi  si_sink_2.h_t       $end
$var wire    4  abj  dest_2 [3:0]  $end
$var wire   11  abk  si_source_3.data [10:0]  $end
$var wire    4  abl  si_source_3.id [3:0]  $end
$var wire    4  abm  si_source_3.dest [3:0]  $end
$var wire    1  abn  si_source_3.pkt_clk       $end
$var wire    1  abo  si_source_3.h_t       $end
$var wire   11  abp  si_sink_3.data [10:0]  $end
$var wire    4  abq  si_sink_3.id [3:0]  $end
$var wire    4  abr  si_sink_3.dest [3:0]  $end
$var wire    1  abs  si_sink_3.pkt_clk       $end
$var wire    1  abt  si_sink_3.h_t       $end
$var wire    4  abu  dest_3 [3:0]  $end
$var wire   11  abv  si_source_4.data [10:0]  $end
$var wire    4  abw  si_source_4.id [3:0]  $end
$var wire    4  abx  si_source_4.dest [3:0]  $end
$var wire    1  aby  si_source_4.pkt_clk       $end
$var wire    1  abz  si_source_4.h_t       $end
$var wire   11  aca  si_sink_4.data [10:0]  $end
$var wire    4  acb  si_sink_4.id [3:0]  $end
$var wire    4  acc  si_sink_4.dest [3:0]  $end
$var wire    1  acd  si_sink_4.pkt_clk       $end
$var wire    1  ace  si_sink_4.h_t       $end
$var wire    4  acf  dest_4 [3:0]  $end
$var wire   11  acg  si_source_5.data [10:0]  $end
$var wire    4  ach  si_source_5.id [3:0]  $end
$var wire    4  aci  si_source_5.dest [3:0]  $end
$var wire    1  acj  si_source_5.pkt_clk       $end
$var wire    1  ack  si_source_5.h_t       $end
$var wire   11  acl  si_sink_5.data [10:0]  $end
$var wire    4  acm  si_sink_5.id [3:0]  $end
$var wire    4  acn  si_sink_5.dest [3:0]  $end
$var wire    1  aco  si_sink_5.pkt_clk       $end
$var wire    1  acp  si_sink_5.h_t       $end
$var wire    4  acq  dest_5 [3:0]  $end
$var wire   11  acr  si_source_6.data [10:0]  $end
$var wire    4  acs  si_source_6.id [3:0]  $end
$var wire    4  act  si_source_6.dest [3:0]  $end
$var wire    1  acu  si_source_6.pkt_clk       $end
$var wire    1  acv  si_source_6.h_t       $end
$var wire   11  acw  si_sink_6.data [10:0]  $end
$var wire    4  acx  si_sink_6.id [3:0]  $end
$var wire    4  acy  si_sink_6.dest [3:0]  $end
$var wire    1  acz  si_sink_6.pkt_clk       $end
$var wire    1  ada  si_sink_6.h_t       $end
$var wire    4  adb  dest_6 [3:0]  $end
$var wire   11  adc  si_source_7.data [10:0]  $end
$var wire    4  add  si_source_7.id [3:0]  $end
$var wire    4  ade  si_source_7.dest [3:0]  $end
$var wire    1  adf  si_source_7.pkt_clk       $end
$var wire    1  adg  si_source_7.h_t       $end
$var wire   11  adh  si_sink_7.data [10:0]  $end
$var wire    4  adi  si_sink_7.id [3:0]  $end
$var wire    4  adj  si_sink_7.dest [3:0]  $end
$var wire    1  adk  si_sink_7.pkt_clk       $end
$var wire    1  adl  si_sink_7.h_t       $end
$var wire    4  adm  dest_7 [3:0]  $end
$var wire   11  adn  si_source_8.data [10:0]  $end
$var wire    4  ado  si_source_8.id [3:0]  $end
$var wire    4  adp  si_source_8.dest [3:0]  $end
$var wire    1  adq  si_source_8.pkt_clk       $end
$var wire    1  adr  si_source_8.h_t       $end
$var wire   11  ads  si_sink_8.data [10:0]  $end
$var wire    4  adt  si_sink_8.id [3:0]  $end
$var wire    4  adu  si_sink_8.dest [3:0]  $end
$var wire    1  adv  si_sink_8.pkt_clk       $end
$var wire    1  adw  si_sink_8.h_t       $end
$var wire    4  adx  dest_8 [3:0]  $end
$var wire   11  ady  si_source_9.data [10:0]  $end
$var wire    4  adz  si_source_9.id [3:0]  $end
$var wire    4  aea  si_source_9.dest [3:0]  $end
$var wire    1  aeb  si_source_9.pkt_clk       $end
$var wire    1  aec  si_source_9.h_t       $end
$var wire   11  aed  si_sink_9.data [10:0]  $end
$var wire    4  aee  si_sink_9.id [3:0]  $end
$var wire    4  aef  si_sink_9.dest [3:0]  $end
$var wire    1  aeg  si_sink_9.pkt_clk       $end
$var wire    1  aeh  si_sink_9.h_t       $end
$var wire    4  aei  dest_9 [3:0]  $end
$var wire   11  aej  si_source_10.data [10:0]  $end
$var wire    4  aek  si_source_10.id [3:0]  $end
$var wire    4  ael  si_source_10.dest [3:0]  $end
$var wire    1  aem  si_source_10.pkt_clk       $end
$var wire    1  aen  si_source_10.h_t       $end
$var wire   11  aeo  si_sink_10.data [10:0]  $end
$var wire    4  aep  si_sink_10.id [3:0]  $end
$var wire    4  aeq  si_sink_10.dest [3:0]  $end
$var wire    1  aer  si_sink_10.pkt_clk       $end
$var wire    1  aes  si_sink_10.h_t       $end
$var wire    4  aet  dest_10 [3:0]  $end
$var wire   11  aeu  si_source_11.data [10:0]  $end
$var wire    4  aev  si_source_11.id [3:0]  $end
$var wire    4  aew  si_source_11.dest [3:0]  $end
$var wire    1  aex  si_source_11.pkt_clk       $end
$var wire    1  aey  si_source_11.h_t       $end
$var wire   11  aez  si_sink_11.data [10:0]  $end
$var wire    4  afa  si_sink_11.id [3:0]  $end
$var wire    4  afb  si_sink_11.dest [3:0]  $end
$var wire    1  afc  si_sink_11.pkt_clk       $end
$var wire    1  afd  si_sink_11.h_t       $end
$var wire    4  afe  dest_11 [3:0]  $end
$var wire   11  aff  si_source_12.data [10:0]  $end
$var wire    4  afg  si_source_12.id [3:0]  $end
$var wire    4  afh  si_source_12.dest [3:0]  $end
$var wire    1  afi  si_source_12.pkt_clk       $end
$var wire    1  afj  si_source_12.h_t       $end
$var wire   11  afk  si_sink_12.data [10:0]  $end
$var wire    4  afl  si_sink_12.id [3:0]  $end
$var wire    4  afm  si_sink_12.dest [3:0]  $end
$var wire    1  afn  si_sink_12.pkt_clk       $end
$var wire    1  afo  si_sink_12.h_t       $end
$var wire    4  afp  dest_12 [3:0]  $end
$var wire   11  afq  si_source_13.data [10:0]  $end
$var wire    4  afr  si_source_13.id [3:0]  $end
$var wire    4  afs  si_source_13.dest [3:0]  $end
$var wire    1  aft  si_source_13.pkt_clk       $end
$var wire    1  afu  si_source_13.h_t       $end
$var wire   11  afv  si_sink_13.data [10:0]  $end
$var wire    4  afw  si_sink_13.id [3:0]  $end
$var wire    4  afx  si_sink_13.dest [3:0]  $end
$var wire    1  afy  si_sink_13.pkt_clk       $end
$var wire    1  afz  si_sink_13.h_t       $end
$var wire    4  aga  dest_13 [3:0]  $end
$var wire   11  agb  si_source_14.data [10:0]  $end
$var wire    4  agc  si_source_14.id [3:0]  $end
$var wire    4  agd  si_source_14.dest [3:0]  $end
$var wire    1  age  si_source_14.pkt_clk       $end
$var wire    1  agf  si_source_14.h_t       $end
$var wire   11  agg  si_sink_14.data [10:0]  $end
$var wire    4  agh  si_sink_14.id [3:0]  $end
$var wire    4  agi  si_sink_14.dest [3:0]  $end
$var wire    1  agj  si_sink_14.pkt_clk       $end
$var wire    1  agk  si_sink_14.h_t       $end
$var wire    4  agl  dest_14 [3:0]  $end
$var wire   11  agm  si_source_15.data [10:0]  $end
$var wire    4  agn  si_source_15.id [3:0]  $end
$var wire    4  ago  si_source_15.dest [3:0]  $end
$var wire    1  agp  si_source_15.pkt_clk       $end
$var wire    1  agq  si_source_15.h_t       $end
$var wire   11  agr  si_sink_15.data [10:0]  $end
$var wire    4  ags  si_sink_15.id [3:0]  $end
$var wire    4  agt  si_sink_15.dest [3:0]  $end
$var wire    1  agu  si_sink_15.pkt_clk       $end
$var wire    1  agv  si_sink_15.h_t       $end
$var wire    4  agw  dest_15 [3:0]  $end
$upscope $end
$enddefinitions  $end

$comment
All initial values are dumped below at time 0 sec = 0 timescale units.
$end

$dumpvars
1aaa
0aab
0aac
b0 aad
b0 aae
b0 aaf
0aag
0aah
b0 aai
b0 aaj
b0 aak
0aal
0aam
b1 aan
b0 aao
b0 aap
b0 aaq
0aar
0aas
b0 aat
b0 aau
b0 aav
0aaw
0aax
b0 aay
b0 aaz
b0 aba
b0 abb
0abc
0abd
b0 abe
b0 abf
b0 abg
0abh
0abi
b11 abj
b0 abk
b0 abl
b0 abm
0abn
0abo
b0 abp
b0 abq
b0 abr
0abs
0abt
b10 abu
b0 abv
b0 abw
b0 abx
0aby
0abz
b0 aca
b0 acb
b0 acc
0acd
0ace
b101 acf
b0 acg
b0 ach
b0 aci
0acj
0ack
b0 acl
b0 acm
b0 acn
0aco
0acp
b100 acq
b0 acr
b0 acs
b0 act
0acu
0acv
b0 acw
b0 acx
b0 acy
0acz
0ada
b111 adb
b0 adc
b0 add
b0 ade
0adf
0adg
b0 adh
b0 adi
b0 adj
0adk
0adl
b110 adm
b0 adn
b0 ado
b0 adp
0adq
0adr
b0 ads
b0 adt
b0 adu
0adv
0adw
b1001 adx
b0 ady
b0 adz
b0 aea
0aeb
0aec
b0 aed
b0 aee
b0 aef
0aeg
0aeh
b1000 aei
b0 aej
b0 aek
b0 ael
0aem
0aen
b0 aeo
b0 aep
b0 aeq
0aer
0aes
b1011 aet
b0 aeu
b0 aev
b0 aew
0aex
0aey
b0 aez
b0 afa
b0 afb
0afc
0afd
b1010 afe
b0 aff
b0 afg
b0 afh
0afi
0afj
b0 afk
b0 afl
b0 afm
0afn
0afo
b1101 afp
b0 afq
b0 afr
b0 afs
0aft
0afu
b0 afv
b0 afw
b0 afx
0afy
0afz
b1100 aga
b0 agb
b0 agc
b0 agd
0age
0agf
b0 agg
b0 agh
b0 agi
0agj
0agk
b1111 agl
b0 agm
b0 agn
b0 ago
0agp
0agq
b0 agr
b0 ags
b0 agt
0agu
0agv
b1110 agw
$end

#10000
1aab
1aac

#12500
0aab
0aac

#15000
1aab
1aac

#17500
0aab
0aac

#20000
1aab
1aac

#22500
0aab
0aac

#25000
1aab
1aac

#27500
0aab
0aac

#30000
1aab
1aac

#32500
0aab
0aac

#35000
1aab
1aac

#37500
0aab
0aac

#40000
1aab
1aac

#42500
0aab
0aac

#45000
1aab
1aac

#47500
0aab
0aac

#50000
1aab
1aac

#52500
0aab
0aac

#55000
1aab
1aac

#57500
0aab
0aac

#60000
1aab
1aac

#62500
0aaa
0aab
0aac

#65000
1aab
1aac

#67500
0aab
0aac

#70000
1aab
1aac

#72500
0aab
0aac

#75000
1aab
1aac

#77500
0aab
0aac

#80000
1aab
1aac

#82500
0aab
0aac

#85000
1aab
1aac

#87500
0aab
0aac

#90000
1aab
1aac

#92500
0aab
0aac

#95000
1aab
1aac

#97500
0aab
0aac

#100000
1aab
1aac

#102500
0aab
0aac

#105000
1aab
1aac

#107500
0aab
0aac

#110000
1aab
1aac

#112500
0aab
0aac

#115000
1aab
1aac

#117500
0aab
0aac

#120000
1aab
1aac

#122500
0aab
0aac

#125000
1aaa
1aab
1aac
b1111101001 aad
b1 aaf
1aag
b1111101010 aao
b1 aap
1aar
b1111101011 aaz
b10 aba
b11 abb
1abc
b1111101100 abk
b11 abl
b10 abm
1abn
b1111101101 abv
b100 abw
b101 abx
1aby
b1111101110 acg
b101 ach
b100 aci
1acj
b1111101111 acr
b110 acs
b111 act
1acu
b1111110000 adc
b111 add
b110 ade
1adf
b1111110001 adn
b1000 ado
b1001 adp
1adq
b1111110010 ady
b1001 adz
b1000 aea
1aeb
b1111110011 aej
b1010 aek
b1011 ael
1aem
b1111110100 aeu
b1011 aev
b1010 aew
1aex
b1111110101 aff
b1100 afg
b1101 afh
1afi
b1111110110 afq
b1101 afr
b1100 afs
1aft
b1111110111 agb
b1110 agc
b1111 agd
1age
b1111111000 agm
b1111 agn
b1110 ago
1agp

#127500
0aab
0aac

#130000
1aab
1aac

#132500
0aab
0aac

#135000
1aab
1aac
b1111101010 aai
b1 aaj
1aal
b1111101001 aat
b1 aav
1aaw
b1111101100 abe
b11 abf
b10 abg
1abh
b1111101011 abp
b10 abq
b11 abr
1abs
b1111101110 aca
b101 acb
b100 acc
1acd
b1111101101 acl
b100 acm
b101 acn
1aco
b1111110000 acw
b111 acx
b110 acy
1acz
b1111101111 adh
b110 adi
b111 adj
1adk
b1111110010 ads
b1001 adt
b1000 adu
1adv
b1111110001 aed
b1000 aee
b1001 aef
1aeg
b1111110100 aeo
b1011 aep
b1010 aeq
1aer
b1111110011 aez
b1010 afa
b1011 afb
1afc
b1111110110 afk
b1101 afl
b1100 afm
1afn
b1111110101 afv
b1100 afw
b1101 afx
1afy
b1111111000 agg
b1111 agh
b1110 agi
1agj
b1111110111 agr
b1110 ags
b1111 agt
1agu

#137500
0aab
0aac

#140000
1aab
1aac

#142500
0aab
0aac

#145000
1aab
1aac

#147500
0aab
0aac

#150000
1aab
1aac

#152500
0aab
0aac

#155000
1aab
1aac

#157500
0aab
0aac

#160000
1aab
1aac

#162500
0aab
0aac

#165000
1aab
1aac

#167500
0aab
0aac

#170000
1aab
1aac

#172500
0aab
0aac

#175000
1aab
1aac

#177500
0aab
0aac

#180000
1aab
1aac

#182500
0aab
0aac

#185000
1aab
1aac

#187500
0aaa
0aab
0aac

#190000
1aab
1aac

#192500
0aab
0aac

#195000
1aab
1aac

#197500
0aab
0aac

#200000
1aab
1aac

#202500
0aab
0aac

#205000
1aab
1aac

#207500
0aab
0aac

#210000
1aab
1aac

#212500
0aab
0aac

#215000
1aab
1aac

#217500
0aab
0aac

#220000
1aab
1aac

#222500
0aab
0aac

#225000
1aab
1aac

#227500
0aab
0aac

#230000
1aab
1aac

#232500
0aab
0aac

#235000
1aab
1aac

#237500
0aab
0aac

#240000
1aab
1aac

#242500
0aab
0aac

#245000
1aab
1aac

#247500
0aab
0aac

#250000
1aaa
1aab
1aac
b1111101010 aad
0aag
b1111101100 aao
0aar
b1111101110 aaz
0abc
b1111110000 abk
0abn
b1111110010 abv
0aby
b1111110100 acg
0acj
b1111110110 acr
0acu
b1111111000 adc
0adf
b1111111010 adn
0adq
b1111111100 ady
0aeb
b1111111110 aej
0aem
b10000000000 aeu
0aex
b10000000010 aff
0afi
b10000000100 afq
0aft
b10000000110 agb
0age
b10000001000 agm
0agp

#252500
0aab
0aac

#255000
1aab
1aac

#257500
0aab
0aac

#260000
1aab
1aac
b1111101100 aai
0aal
b1111101010 aat
0aaw
b1111110000 abe
0abh
b1111101110 abp
0abs
b1111110100 aca
0acd
b1111110010 acl
0aco
b1111111000 acw
0acz
b1111110110 adh
0adk
b1111111100 ads
0adv
b1111111010 aed
0aeg
b10000000000 aeo
0aer
b1111111110 aez
0afc
b10000000100 afk
0afn
b10000000010 afv
0afy
b10000001000 agg
0agj
b10000000110 agr
0agu

#262500
0aab
0aac

#265000
1aab
1aac

#267500
0aab
0aac

#270000
1aab
1aac

#272500
0aab
0aac

#275000
1aab
1aac

#277500
0aab
0aac

#280000
1aab
1aac

#282500
0aab
0aac

#285000
1aab
1aac

#287500
0aab
0aac

#290000
1aab
1aac

#292500
0aab
0aac

#295000
1aab
1aac

#297500
0aab
0aac

#300000
1aab
1aac

#302500
0aab
0aac

#305000
1aab
1aac

#307500
0aab
0aac

#310000
1aab
1aac

#312500
0aaa
0aab
0aac

#315000
1aab
1aac

#317500
0aab
0aac

#320000
1aab
1aac

#322500
0aab
0aac

#325000
1aab
1aac

#327500
0aab
0aac

#330000
1aab
1aac

#332500
0aab
0aac

#335000
1aab
1aac

#337500
0aab
0aac

#340000
1aab
1aac

#342500
0aab
0aac

#345000
1aab
1aac

#347500
0aab
0aac

#350000
1aab
1aac

#352500
0aab
0aac

#355000
1aab
1aac

#357500
0aab
0aac

#360000
1aab
1aac

#362500
0aab
0aac

#365000
1aab
1aac

#367500
0aab
0aac

#370000
1aab
1aac

#372500
0aab
0aac

#375000
1aaa
1aab
1aac
b1111101011 aad
1aag
b1111101110 aao
1aar
b1111110001 aaz
1abc
b1111110100 abk
1abn
b1111110111 abv
1aby
b1111111010 acg
1acj
b1111111101 acr
1acu
b10000000000 adc
1adf
b10000000011 adn
1adq
b10000000110 ady
1aeb
b10000001001 aej
1aem
b10000001100 aeu
1aex
b10000001111 aff
1afi
b10000010010 afq
1aft
b10000010101 agb
1age
b10000011000 agm
1agp

#377500
0aab
0aac

#380000
1aab
1aac

#382500
0aab
0aac

#385000
1aab
1aac
b1111101110 aai
1aal
b1111101011 aat
1aaw
b1111110100 abe
1abh
b1111110001 abp
1abs
b1111111010 aca
1acd
b1111110111 acl
1aco
b10000000000 acw
1acz
b1111111101 adh
1adk
b10000000110 ads
1adv
b10000000011 aed
1aeg
b10000001100 aeo
1aer
b10000001001 aez
1afc
b10000010010 afk
1afn
b10000001111 afv
1afy
b10000011000 agg
1agj
b10000010101 agr
1agu

#387500
0aab
0aac

#390000
1aab
1aac

#392500
0aab
0aac

#395000
1aab
1aac

#397500
0aab
0aac

#400000
1aab
1aac

#402500
0aab
0aac

#405000
1aab
1aac

#407500
0aab
0aac

#410000
1aab
1aac

#412500
0aab
0aac

#415000
1aab
1aac

#417500
0aab
0aac

#420000
1aab
1aac

#422500
0aab
0aac

#425000
1aab
1aac

#427500
0aab
0aac

#430000
1aab
1aac

#432500
0aab
0aac

#435000
1aab
1aac

#437500
0aaa
0aab
0aac

#440000
1aab
1aac

#442500
0aab
0aac

#445000
1aab
1aac

#447500
0aab
0aac

#450000
1aab
1aac

#452500
0aab
0aac

#455000
1aab
1aac

#457500
0aab
0aac

#460000
1aab
1aac

#462500
0aab
0aac

#465000
1aab
1aac

#467500
0aab
0aac

#470000
1aab
1aac

#472500
0aab
0aac

#475000
1aab
1aac

#477500
0aab
0aac

#480000
1aab
1aac

#482500
0aab
0aac

#485000
1aab
1aac

#487500
0aab
0aac

#490000
1aab
1aac

#492500
0aab
0aac

#495000
1aab
1aac

#497500
0aab
0aac

#500000
1aaa
1aab
1aac
b1111101100 aad
0aag
b1111110000 aao
0aar
b1111110100 aaz
0abc
b1111111000 abk
0abn
b1111111100 abv
0aby
b10000000000 acg
0acj
b10000000100 acr
0acu
b10000001000 adc
0adf
b10000001100 adn
0adq
b10000010000 ady
0aeb
b10000010100 aej
0aem
b10000011000 aeu
0aex
b10000011100 aff
0afi
b10000100000 afq
0aft
b10000100100 agb
0age
b10000101000 agm
0agp

#502500
0aab
0aac

#505000
1aab
1aac

#507500
0aab
0aac

#510000
1aab
1aac
b1111110000 aai
0aal
b1111101100 aat
0aaw
b1111111000 abe
0abh
b1111110100 abp
0abs
b10000000000 aca
0acd
b1111111100 acl
0aco
b10000001000 acw
0acz
b10000000100 adh
0adk
b10000010000 ads
0adv
b10000001100 aed
0aeg
b10000011000 aeo
0aer
b10000010100 aez
0afc
b10000100000 afk
0afn
b10000011100 afv
0afy
b10000101000 agg
0agj
b10000100100 agr
0agu

